{
    "border": "pixel",
    "current_border_width": 3,
    "floating": "auto_off",
    "geometry": {
       "height": 600,
       "width": 800,
       "x": 0,
       "y": 0
    },
    "percent": 0.8,
    "swallows": [
       {
       "class": "^(?i)spotify$"
       }
    ],
    "type": "con"
}

{
    "border": "pixel",
    "current_border_width": 3,
    "floating": "auto_off",
    "geometry": {
       "height": 1030,
       "width": 369,
       "x": 1542,
       "y": 41
    },
    "percent": 0.2,
    "swallows": [
       {
       "class": "^TelegramDesktop$"
       }
    ],
    "type": "con"
}

